{
    "/dist/css/main.css": "/dist/css/main.css",
    "/src/images/motto-icon.svg": "/src/images/motto-icon.svg",
    "/src/images/motto-logo-black.png": "/src/images/motto-logo-black.png",
    "/src/images/motto-logo-green.png": "/src/images/motto-logo-green.png",
    "/src/images/motto-logo-white.png": "/src/images/motto-logo-white.png",
    "/src/images/motto-logo.png": "/src/images/motto-logo.png",
    "/src/images/motto-icon.png": "/src/images/motto-icon.png",
    "/src/images/motto-logo.svg": "/src/images/motto-logo.svg"
}
